/home/kaz/eclipse/workspace/test/src/main/java/test/CassandraConnector.java
/home/kaz/eclipse/workspace/test/src/main/java/test/testBolt.java
/home/kaz/eclipse/workspace/test/src/main/java/test/mainTopology.java
